%YAML 1.1
%TAG !u! tag:unity3d.com,2011:
--- !u!1 &62805102476646156
GameObject:
  m_ObjectHideFlags: 0
  m_CorrespondingSourceObject: {fileID: 0}
  m_PrefabInstance: {fileID: 0}
  m_PrefabAsset: {fileID: 0}
  serializedVersion: 6
  m_Component:
  - component: {fileID: 5694267148968943437}
  m_Layer: 0
  m_Name: index_02_r
  m_TagString: Untagged
  m_Icon: {fileID: 0}
  m_NavMeshLayer: 0
  m_StaticEditorFlags: 0
  m_IsActive: 1
--- !u!4 &5694267148968943437
Transform:
  m_ObjectHideFlags: 0
  m_CorrespondingSourceObject: {fileID: 0}
  m_PrefabInstance: {fileID: 0}
  m_PrefabAsset: {fileID: 0}
  m_GameObject: {fileID: 62805102476646156}
  m_LocalRotation: {x: 0.10384119, y: 0.011186855, z: -0.2502321, w: 0.9625361}
  m_LocalPosition: {x: 0.000000014901161, y: 0.05361091, z: -0.000000048428774}
  m_LocalScale: {x: 0.99999994, y: 0.9999999, z: 0.9999999}
  m_ConstrainProportionsScale: 0
  m_Children:
  - {fileID: 8634145456884227991}
  m_Father: {fileID: 8066857736101218480}
  m_RootOrder: 0
  m_LocalEulerAnglesHint: {x: 0, y: 0, z: 0}
--- !u!1 &282507903046383648
GameObject:
  m_ObjectHideFlags: 0
  m_CorrespondingSourceObject: {fileID: 0}
  m_PrefabInstance: {fileID: 0}
  m_PrefabAsset: {fileID: 0}
  serializedVersion: 6
  m_Component:
  - component: {fileID: 1306822856814155935}
  m_Layer: 0
  m_Name: hand_l
  m_TagString: Untagged
  m_Icon: {fileID: 0}
  m_NavMeshLayer: 0
  m_StaticEditorFlags: 0
  m_IsActive: 1
--- !u!4 &1306822856814155935
Transform:
  m_ObjectHideFlags: 0
  m_CorrespondingSourceObject: {fileID: 0}
  m_PrefabInstance: {fileID: 0}
  m_PrefabAsset: {fileID: 0}
  m_GameObject: {fileID: 282507903046383648}
  m_LocalRotation: {x: -0.19132599, y: 0.5592928, z: -0.019054327, w: 0.806364}
  m_LocalPosition: {x: -0.00000004284084, y: 0.19866185, z: 0.0000000433065}
  m_LocalScale: {x: 1, y: 1, z: 1.0000001}
  m_ConstrainProportionsScale: 0
  m_Children:
  - {fileID: 2895765830490301665}
  - {fileID: 4808849311064985268}
  m_Father: {fileID: 6565996609444133747}
  m_RootOrder: 0
  m_LocalEulerAnglesHint: {x: 0, y: 0, z: 0}
--- !u!1 &307809739536916423
GameObject:
  m_ObjectHideFlags: 0
  m_CorrespondingSourceObject: {fileID: 0}
  m_PrefabInstance: {fileID: 0}
  m_PrefabAsset: {fileID: 0}
  serializedVersion: 6
  m_Component:
  - component: {fileID: 4783631709067173296}
  - component: {fileID: 8910776018002180550}
  - component: {fileID: 7988583519849756116}
  m_Layer: 0
  m_Name: '[UI]'
  m_TagString: Untagged
  m_Icon: {fileID: 0}
  m_NavMeshLayer: 0
  m_StaticEditorFlags: 0
  m_IsActive: 1
--- !u!224 &4783631709067173296
RectTransform:
  m_ObjectHideFlags: 0
  m_CorrespondingSourceObject: {fileID: 0}
  m_PrefabInstance: {fileID: 0}
  m_PrefabAsset: {fileID: 0}
  m_GameObject: {fileID: 307809739536916423}
  m_LocalRotation: {x: 0.42261827, y: 0, z: 0, w: 0.9063079}
  m_LocalPosition: {x: 0, y: 0, z: 0}
  m_LocalScale: {x: 0.02, y: 0.02, z: 1}
  m_ConstrainProportionsScale: 0
  m_Children:
  - {fileID: 5213825705669557899}
  - {fileID: 7323506582477022932}
  m_Father: {fileID: 2248434285133749092}
  m_RootOrder: 2
  m_LocalEulerAnglesHint: {x: 50, y: 0, z: 0}
  m_AnchorMin: {x: 0, y: 0}
  m_AnchorMax: {x: 0, y: 0}
  m_AnchoredPosition: {x: 0, y: 2}
  m_SizeDelta: {x: 100, y: 100}
  m_Pivot: {x: 0.5, y: 0.5}
--- !u!223 &8910776018002180550
Canvas:
  m_ObjectHideFlags: 0
  m_CorrespondingSourceObject: {fileID: 0}
  m_PrefabInstance: {fileID: 0}
  m_PrefabAsset: {fileID: 0}
  m_GameObject: {fileID: 307809739536916423}
  m_Enabled: 1
  serializedVersion: 3
  m_RenderMode: 2
  m_Camera: {fileID: 0}
  m_PlaneDistance: 100
  m_PixelPerfect: 0
  m_ReceivesEvents: 1
  m_OverrideSorting: 0
  m_OverridePixelPerfect: 0
  m_SortingBucketNormalizedSize: 0
  m_AdditionalShaderChannelsFlag: 25
  m_SortingLayerID: 0
  m_SortingOrder: 0
  m_TargetDisplay: 0
--- !u!114 &7988583519849756116
MonoBehaviour:
  m_ObjectHideFlags: 0
  m_CorrespondingSourceObject: {fileID: 0}
  m_PrefabInstance: {fileID: 0}
  m_PrefabAsset: {fileID: 0}
  m_GameObject: {fileID: 307809739536916423}
  m_Enabled: 1
  m_EditorHideFlags: 0
  m_Script: {fileID: 11500000, guid: 0cd44c1031e13a943bb63640046fad76, type: 3}
  m_Name: 
  m_EditorClassIdentifier: 
  m_UiScaleMode: 0
  m_ReferencePixelsPerUnit: 100
  m_ScaleFactor: 1
  m_ReferenceResolution: {x: 800, y: 600}
  m_ScreenMatchMode: 0
  m_MatchWidthOrHeight: 0
  m_PhysicalUnit: 3
  m_FallbackScreenDPI: 96
  m_DefaultSpriteDPI: 96
  m_DynamicPixelsPerUnit: 1
  m_PresetInfoIsWorld: 1
--- !u!1 &363926642117099018
GameObject:
  m_ObjectHideFlags: 0
  m_CorrespondingSourceObject: {fileID: 0}
  m_PrefabInstance: {fileID: 0}
  m_PrefabAsset: {fileID: 0}
  serializedVersion: 6
  m_Component:
  - component: {fileID: 6565996609444133747}
  m_Layer: 0
  m_Name: lowerarm_l
  m_TagString: Untagged
  m_Icon: {fileID: 0}
  m_NavMeshLayer: 0
  m_StaticEditorFlags: 0
  m_IsActive: 1
--- !u!4 &6565996609444133747
Transform:
  m_ObjectHideFlags: 0
  m_CorrespondingSourceObject: {fileID: 0}
  m_PrefabInstance: {fileID: 0}
  m_PrefabAsset: {fileID: 0}
  m_GameObject: {fileID: 363926642117099018}
  m_LocalRotation: {x: 0.08541885, y: 0.10010077, z: -0.23101704, w: 0.96400964}
  m_LocalPosition: {x: -0.0000000037252903, y: 0.2638774, z: 0.00000015087426}
  m_LocalScale: {x: 1, y: 0.99999994, z: 0.99999994}
  m_ConstrainProportionsScale: 0
  m_Children:
  - {fileID: 1306822856814155935}
  m_Father: {fileID: 6885514211726478873}
  m_RootOrder: 0
  m_LocalEulerAnglesHint: {x: 0, y: 0, z: 0}
--- !u!1 &695386887805587123
GameObject:
  m_ObjectHideFlags: 0
  m_CorrespondingSourceObject: {fileID: 0}
  m_PrefabInstance: {fileID: 0}
  m_PrefabAsset: {fileID: 0}
  serializedVersion: 6
  m_Component:
  - component: {fileID: 2895765830490301665}
  m_Layer: 0
  m_Name: index_01_l
  m_TagString: Untagged
  m_Icon: {fileID: 0}
  m_NavMeshLayer: 0
  m_StaticEditorFlags: 0
  m_IsActive: 1
--- !u!4 &2895765830490301665
Transform:
  m_ObjectHideFlags: 0
  m_CorrespondingSourceObject: {fileID: 0}
  m_PrefabInstance: {fileID: 0}
  m_PrefabAsset: {fileID: 0}
  m_GameObject: {fileID: 695386887805587123}
  m_LocalRotation: {x: 0.053758614, y: -0.18280421, z: 0.10923365, w: 0.97558224}
  m_LocalPosition: {x: -0.012653877, y: 0.06218408, z: -0.004037775}
  m_LocalScale: {x: 1, y: 1.0000001, z: 1.0000001}
  m_ConstrainProportionsScale: 0
  m_Children:
  - {fileID: 475425722618640600}
  m_Father: {fileID: 1306822856814155935}
  m_RootOrder: 0
  m_LocalEulerAnglesHint: {x: 0, y: 0, z: 0}
--- !u!1 &1716662650217202222
GameObject:
  m_ObjectHideFlags: 0
  m_CorrespondingSourceObject: {fileID: 0}
  m_PrefabInstance: {fileID: 0}
  m_PrefabAsset: {fileID: 0}
  serializedVersion: 6
  m_Component:
  - component: {fileID: 4675247908843258586}
  m_Layer: 0
  m_Name: clavicle_r
  m_TagString: Untagged
  m_Icon: {fileID: 0}
  m_NavMeshLayer: 0
  m_StaticEditorFlags: 0
  m_IsActive: 1
--- !u!4 &4675247908843258586
Transform:
  m_ObjectHideFlags: 0
  m_CorrespondingSourceObject: {fileID: 0}
  m_PrefabInstance: {fileID: 0}
  m_PrefabAsset: {fileID: 0}
  m_GameObject: {fileID: 1716662650217202222}
  m_LocalRotation: {x: 0.14679156, y: -0.62258464, z: 0.75788045, w: 0.12828796}
  m_LocalPosition: {x: 0.015247838, y: 0.31072995, z: -0.019225365}
  m_LocalScale: {x: 0.99999994, y: 0.99999976, z: 1}
  m_ConstrainProportionsScale: 0
  m_Children:
  - {fileID: 1643846315108878765}
  m_Father: {fileID: 5946540273700661836}
  m_RootOrder: 1
  m_LocalEulerAnglesHint: {x: 0, y: 0, z: 0}
--- !u!1 &1763564158437613371
GameObject:
  m_ObjectHideFlags: 0
  m_CorrespondingSourceObject: {fileID: 0}
  m_PrefabInstance: {fileID: 0}
  m_PrefabAsset: {fileID: 0}
  serializedVersion: 6
  m_Component:
  - component: {fileID: 4905079070720516257}
  m_Layer: 0
  m_Name: pelvis
  m_TagString: Untagged
  m_Icon: {fileID: 0}
  m_NavMeshLayer: 0
  m_StaticEditorFlags: 0
  m_IsActive: 1
--- !u!4 &4905079070720516257
Transform:
  m_ObjectHideFlags: 0
  m_CorrespondingSourceObject: {fileID: 0}
  m_PrefabInstance: {fileID: 0}
  m_PrefabAsset: {fileID: 0}
  m_GameObject: {fileID: 1763564158437613371}
  m_LocalRotation: {x: 0.0009382452, y: -0.7071075, z: -0.0009381609, w: 0.70710486}
  m_LocalPosition: {x: -0.0003530216, y: 0.5320438, z: -0.01040462}
  m_LocalScale: {x: 1, y: 0.99999994, z: 1}
  m_ConstrainProportionsScale: 0
  m_Children:
  - {fileID: 6487902138802140089}
  - {fileID: 5781177120752355515}
  - {fileID: 163894062357605774}
  m_Father: {fileID: 5553480634079021475}
  m_RootOrder: 0
  m_LocalEulerAnglesHint: {x: 0, y: 0, z: 0}
--- !u!1 &2292372452574084306
GameObject:
  m_ObjectHideFlags: 0
  m_CorrespondingSourceObject: {fileID: 0}
  m_PrefabInstance: {fileID: 0}
  m_PrefabAsset: {fileID: 0}
  serializedVersion: 6
  m_Component:
  - component: {fileID: 7524483714105286443}
  m_Layer: 0
  m_Name: spine_02
  m_TagString: Untagged
  m_Icon: {fileID: 0}
  m_NavMeshLayer: 0
  m_StaticEditorFlags: 0
  m_IsActive: 1
--- !u!4 &7524483714105286443
Transform:
  m_ObjectHideFlags: 0
  m_CorrespondingSourceObject: {fileID: 0}
  m_PrefabInstance: {fileID: 0}
  m_PrefabAsset: {fileID: 0}
  m_GameObject: {fileID: 2292372452574084306}
  m_LocalRotation: {x: -0.00000003398608, y: 0.000000018928189, z: 0.07922263, w: 0.9968569}
  m_LocalPosition: {x: -0.019369744, y: 0.1355177, z: -0.0000000056308123}
  m_LocalScale: {x: 0.99999994, y: 0.9999999, z: 1}
  m_ConstrainProportionsScale: 0
  m_Children:
  - {fileID: 5946540273700661836}
  m_Father: {fileID: 6487902138802140089}
  m_RootOrder: 0
  m_LocalEulerAnglesHint: {x: 0, y: 0, z: 0}
--- !u!1 &2540389589518119226
GameObject:
  m_ObjectHideFlags: 0
  m_CorrespondingSourceObject: {fileID: 0}
  m_PrefabInstance: {fileID: 0}
  m_PrefabAsset: {fileID: 0}
  serializedVersion: 6
  m_Component:
  - component: {fileID: 2197074333859340304}
  - component: {fileID: 4455923611556452129}
  - component: {fileID: 2900965232104599671}
  m_Layer: 0
  m_Name: '[AI]'
  m_TagString: Untagged
  m_Icon: {fileID: 0}
  m_NavMeshLayer: 0
  m_StaticEditorFlags: 0
  m_IsActive: 1
--- !u!4 &2197074333859340304
Transform:
  m_ObjectHideFlags: 0
  m_CorrespondingSourceObject: {fileID: 0}
  m_PrefabInstance: {fileID: 0}
  m_PrefabAsset: {fileID: 0}
  m_GameObject: {fileID: 2540389589518119226}
  m_LocalRotation: {x: 0, y: 0, z: 0, w: 1}
  m_LocalPosition: {x: 3.45, y: 0, z: 8.94}
  m_LocalScale: {x: 1, y: 1, z: 1}
  m_ConstrainProportionsScale: 0
  m_Children: []
  m_Father: {fileID: 2248434285133749092}
  m_RootOrder: 1
  m_LocalEulerAnglesHint: {x: 0, y: 0, z: 0}
--- !u!114 &4455923611556452129
MonoBehaviour:
  m_ObjectHideFlags: 0
  m_CorrespondingSourceObject: {fileID: 0}
  m_PrefabInstance: {fileID: 0}
  m_PrefabAsset: {fileID: 0}
  m_GameObject: {fileID: 2540389589518119226}
  m_Enabled: 1
  m_EditorHideFlags: 0
  m_Script: {fileID: 11500000, guid: e09c0b93b7484545a4777c934e99a69b, type: 3}
  m_Name: 
  m_EditorClassIdentifier: 
  initialVariables:
  - rid: 5623233026447638528
  - rid: 5623233026447638562
  - rid: 5623233026447638563
  - rid: 5623233026447638538
  - rid: 5623233026447638539
  references:
    version: 2
    RefIds:
    - rid: 5623233026447638528
      type: {class: BlackboardAtomicObject, ns: Game.Engine, asm: Engine}
      data:
        key: 2
        value: {fileID: 0}
    - rid: 5623233026447638538
      type: {class: BlackboardGameObject, ns: AIModule, asm: AI}
      data:
        key: 7
        value: {fileID: 5310893115516053068}
    - rid: 5623233026447638539
      type: {class: BlackboardGameObject, ns: AIModule, asm: AI}
      data:
        key: 8
        value: {fileID: 7227571051131715091}
    - rid: 5623233026447638562
      type: {class: BlackboardObject, ns: AIModule, asm: AI}
      data:
        key: 4
        value: {fileID: 0}
    - rid: 5623233026447638563
      type: {class: BlackboardFloat, ns: AIModule, asm: AI}
      data:
        key: 6
        value: 1.5
--- !u!114 &2900965232104599671
MonoBehaviour:
  m_ObjectHideFlags: 0
  m_CorrespondingSourceObject: {fileID: 0}
  m_PrefabInstance: {fileID: 0}
  m_PrefabAsset: {fileID: 0}
  m_GameObject: {fileID: 2540389589518119226}
  m_Enabled: 1
  m_EditorHideFlags: 0
  m_Script: {fileID: 11500000, guid: eb358209d55a48fa85f050561a0aa4a5, type: 3}
  m_Name: 
  m_EditorClassIdentifier: 
  blackboard: {fileID: 4455923611556452129}
  scriptableMechanics: []
  plainMechanics:
  - rid: 5623233026447638540
  references:
    version: 2
    RefIds:
    - rid: 5623233026447638540
      type: {class: BehaviourTree, ns: AIModule, asm: AI}
      data:
        root:
          rid: 5623233026447638541
    - rid: 5623233026447638541
      type: {class: BTNodeSelector, ns: AIModule, asm: AI}
      data:
        name: Root
        nodes:
        - rid: 5623233026447638542
        - rid: 5623233026447638555
    - rid: 5623233026447638542
      type: {class: BTNodeSequence, ns: AIModule, asm: AI}
      data:
        name: UnloadResourcesToBarn
        nodes:
        - rid: 5623233026447638543
        - rid: 5623233026447638545
        - rid: 5623233026447638546
    - rid: 5623233026447638543
      type: {class: BTNodeCondition, ns: AIModule, asm: AI}
      data:
        name: CharacterIsFullCondition
        condition:
          rid: 5623233026447638544
    - rid: 5623233026447638544
      type: {class: AIConditionRef, ns: AIModule, asm: AI}
      data:
        value: {fileID: 11400000, guid: a1bba1d5c1eca1310900f5d4c0f568ce, type: 2}
    - rid: 5623233026447638545
      type: {class: BTNode_MoveToTarget, ns: Game.Engine, asm: Engine}
      data:
        Character: 1
        Target: 2
        StoppingDistance: 6
    - rid: 5623233026447638546
      type: {class: BTNodeSelector, ns: AIModule, asm: AI}
      data:
        name: TryToUnloadResourcesToBarn
        nodes:
        - rid: 5623233026447638547
        - rid: 5623233026447638551
    - rid: 5623233026447638547
      type: {class: BTNodeSequence, ns: AIModule, asm: AI}
      data:
        name: CheckBarnIsFull
        nodes:
        - rid: 5623233026447638548
        - rid: 5623233026447638550
    - rid: 5623233026447638548
      type: {class: BTNodeCondition, ns: AIModule, asm: AI}
      data:
        name: BarnIsFullCondition
        condition:
          rid: 5623233026447638549
    - rid: 5623233026447638549
      type: {class: AIConditionRef, ns: AIModule, asm: AI}
      data:
        value: {fileID: 11400000, guid: 377441dc99e39ef72890f3395536f81c, type: 2}
    - rid: 5623233026447638550
      type: {class: BTNodeAction, ns: AIModule, asm: AI}
      data:
        name: ShowBarnFullDialog
        action: {fileID: 11400000, guid: df96aee103e1be0b9a25f02dd7104c68, type: 2}
    - rid: 5623233026447638551
      type: {class: BTNodeSequence, ns: AIModule, asm: AI}
      data:
        name: UnloadResources
        nodes:
        - rid: 5623233026447638552
        - rid: 5623233026447638554
    - rid: 5623233026447638552
      type: {class: BTNodeAction, ns: AIModule, asm: AI}
      data:
        name: HideBarnFullDialog
        action: {fileID: 11400000, guid: c7c7e719b27c48290ac8b5bf325b33a8, type: 2}
    - rid: 5623233026447638554
      type: {class: BTNode_UnloadResources, ns: Game.Engine, asm: Engine}
      data:
        Character: 1
        TargetStorage: 2
    - rid: 5623233026447638555
      type: {class: BTNodeSelector, ns: AIModule, asm: AI}
      data:
        name: ExtractResources
        nodes:
        - rid: 5623233026447638556
        - rid: 5623233026447638561
    - rid: 5623233026447638556
      type: {class: BTNodeSequence, ns: AIModule, asm: AI}
      data:
        name: TryExtractResource
        nodes:
        - rid: 5623233026447638557
        - rid: 5623233026447638558
        - rid: 5623233026447638559
        - rid: 5623233026447638560
    - rid: 5623233026447638557
      type: {class: BTNode_FindResource, ns: Game.Engine, asm: Engine}
      data:
        Character: 1
        ResourceService: 4
        TargetResource: 3
    - rid: 5623233026447638558
      type: {class: BTNodeAction, ns: AIModule, asm: AI}
      data:
        name: HideNoTreesDialog
        action: {fileID: 11400000, guid: 11eb2fd6a77f1b29faf914a7b1c0952e, type: 2}
    - rid: 5623233026447638559
      type: {class: BTNode_MoveToTarget, ns: Game.Engine, asm: Engine}
      data:
        Character: 1
        Target: 3
        StoppingDistance: 6
    - rid: 5623233026447638560
      type: {class: BTNode_ExtractResource, ns: Game.Engine, asm: Engine}
      data:
        Character: 1
        Resource: 3
        MinDistance: 6
    - rid: 5623233026447638561
      type: {class: BTNodeAction, ns: AIModule, asm: AI}
      data:
        name: ShowNoTreesDialog
        action: {fileID: 11400000, guid: 4ab3182d6211476dc8dd892ddc33b125, type: 2}
--- !u!1 &2729591373148564147
GameObject:
  m_ObjectHideFlags: 0
  m_CorrespondingSourceObject: {fileID: 0}
  m_PrefabInstance: {fileID: 0}
  m_PrefabAsset: {fileID: 0}
  serializedVersion: 6
  m_Component:
  - component: {fileID: 3340859652822358993}
  m_Layer: 0
  m_Name: head
  m_TagString: Untagged
  m_Icon: {fileID: 0}
  m_NavMeshLayer: 0
  m_StaticEditorFlags: 0
  m_IsActive: 1
--- !u!4 &3340859652822358993
Transform:
  m_ObjectHideFlags: 0
  m_CorrespondingSourceObject: {fileID: 0}
  m_PrefabInstance: {fileID: 0}
  m_PrefabAsset: {fileID: 0}
  m_GameObject: {fileID: 2729591373148564147}
  m_LocalRotation: {x: 0.000000013077987, y: -0.00000017502538, z: 0.07571667, w: 0.9971294}
  m_LocalPosition: {x: -0.0018450785, y: 0.077221386, z: -3.2128078e-11}
  m_LocalScale: {x: 1, y: 1, z: 1}
  m_ConstrainProportionsScale: 0
  m_Children: []
  m_Father: {fileID: 144727768061468374}
  m_RootOrder: 0
  m_LocalEulerAnglesHint: {x: 0, y: 0, z: 0}
--- !u!1 &2895460084710472409
GameObject:
  m_ObjectHideFlags: 0
  m_CorrespondingSourceObject: {fileID: 0}
  m_PrefabInstance: {fileID: 0}
  m_PrefabAsset: {fileID: 0}
  serializedVersion: 6
  m_Component:
  - component: {fileID: 6885514211726478873}
  m_Layer: 0
  m_Name: upperarm_l
  m_TagString: Untagged
  m_Icon: {fileID: 0}
  m_NavMeshLayer: 0
  m_StaticEditorFlags: 0
  m_IsActive: 1
--- !u!4 &6885514211726478873
Transform:
  m_ObjectHideFlags: 0
  m_CorrespondingSourceObject: {fileID: 0}
  m_PrefabInstance: {fileID: 0}
  m_PrefabAsset: {fileID: 0}
  m_GameObject: {fileID: 2895460084710472409}
  m_LocalRotation: {x: 0.2138062, y: -0.059386343, z: -0.16481291, w: 0.9610395}
  m_LocalPosition: {x: -0.0000000027939677, y: 0.13966924, z: -0.000000006519258}
  m_LocalScale: {x: 1, y: 0.99999994, z: 1}
  m_ConstrainProportionsScale: 0
  m_Children:
  - {fileID: 6565996609444133747}
  m_Father: {fileID: 2575437086866657850}
  m_RootOrder: 0
  m_LocalEulerAnglesHint: {x: 0, y: 0, z: 0}
--- !u!1 &3876459815990328951
GameObject:
  m_ObjectHideFlags: 0
  m_CorrespondingSourceObject: {fileID: 0}
  m_PrefabInstance: {fileID: 0}
  m_PrefabAsset: {fileID: 0}
  serializedVersion: 6
  m_Component:
  - component: {fileID: 475425722618640600}
  m_Layer: 0
  m_Name: index_02_l
  m_TagString: Untagged
  m_Icon: {fileID: 0}
  m_NavMeshLayer: 0
  m_StaticEditorFlags: 0
  m_IsActive: 1
--- !u!4 &475425722618640600
Transform:
  m_ObjectHideFlags: 0
  m_CorrespondingSourceObject: {fileID: 0}
  m_PrefabInstance: {fileID: 0}
  m_PrefabAsset: {fileID: 0}
  m_GameObject: {fileID: 3876459815990328951}
  m_LocalRotation: {x: 0.10384133, y: -0.011186668, z: 0.2502323, w: 0.96253604}
  m_LocalPosition: {x: -0.000000031664968, y: 0.05361089, z: 0.000000048428774}
  m_LocalScale: {x: 1.0000001, y: 0.9999999, z: 0.99999994}
  m_ConstrainProportionsScale: 0
  m_Children: []
  m_Father: {fileID: 2895765830490301665}
  m_RootOrder: 0
  m_LocalEulerAnglesHint: {x: 0, y: 0, z: 0}
--- !u!1 &3914666580984648671
GameObject:
  m_ObjectHideFlags: 0
  m_CorrespondingSourceObject: {fileID: 0}
  m_PrefabInstance: {fileID: 0}
  m_PrefabAsset: {fileID: 0}
  serializedVersion: 6
  m_Component:
  - component: {fileID: 2138328503329201739}
  - component: {fileID: 2229993266527974860}
  m_Layer: 0
  m_Name: Stickman_heads_sphere
  m_TagString: Untagged
  m_Icon: {fileID: 0}
  m_NavMeshLayer: 0
  m_StaticEditorFlags: 0
  m_IsActive: 1
--- !u!4 &2138328503329201739
Transform:
  m_ObjectHideFlags: 0
  m_CorrespondingSourceObject: {fileID: 0}
  m_PrefabInstance: {fileID: 0}
  m_PrefabAsset: {fileID: 0}
  m_GameObject: {fileID: 3914666580984648671}
  m_LocalRotation: {x: -6.123234e-17, y: 1, z: 6.123234e-17, w: -3.7493994e-33}
  m_LocalPosition: {x: -0, y: 0, z: 0}
  m_LocalScale: {x: 1, y: 1, z: 1}
  m_ConstrainProportionsScale: 0
  m_Children: []
  m_Father: {fileID: 7720057089454331928}
  m_RootOrder: 1
  m_LocalEulerAnglesHint: {x: 0, y: 0, z: 0}
--- !u!137 &2229993266527974860
SkinnedMeshRenderer:
  m_ObjectHideFlags: 0
  m_CorrespondingSourceObject: {fileID: 0}
  m_PrefabInstance: {fileID: 0}
  m_PrefabAsset: {fileID: 0}
  m_GameObject: {fileID: 3914666580984648671}
  m_Enabled: 1
  m_CastShadows: 1
  m_ReceiveShadows: 1
  m_DynamicOccludee: 1
  m_StaticShadowCaster: 0
  m_MotionVectors: 1
  m_LightProbeUsage: 1
  m_ReflectionProbeUsage: 1
  m_RayTracingMode: 3
  m_RayTraceProcedural: 0
  m_RenderingLayerMask: 1
  m_RendererPriority: 0
  m_Materials:
  - {fileID: 2100000, guid: 81d7d802d569541fcabe54a792cc58d0, type: 2}
  m_StaticBatchInfo:
    firstSubMesh: 0
    subMeshCount: 0
  m_StaticBatchRoot: {fileID: 0}
  m_ProbeAnchor: {fileID: 0}
  m_LightProbeVolumeOverride: {fileID: 0}
  m_ScaleInLightmap: 1
  m_ReceiveGI: 1
  m_PreserveUVs: 0
  m_IgnoreNormalsForChartDetection: 0
  m_ImportantGI: 0
  m_StitchLightmapSeams: 1
  m_SelectedEditorRenderState: 3
  m_MinimumChartSize: 4
  m_AutoUVMaxDistance: 0.5
  m_AutoUVMaxAngle: 89
  m_LightmapParameters: {fileID: 0}
  m_SortingLayerID: 0
  m_SortingLayer: 0
  m_SortingOrder: 0
  serializedVersion: 2
  m_Quality: 0
  m_UpdateWhenOffscreen: 0
  m_SkinnedMotionVectors: 1
  m_Mesh: {fileID: 4300000, guid: fa7f36c71b9e8fa4798df3a931c2fd92, type: 3}
  m_Bones:
  - {fileID: 5553480634079021475}
  - {fileID: 4905079070720516257}
  - {fileID: 6487902138802140089}
  - {fileID: 7524483714105286443}
  - {fileID: 5946540273700661836}
  - {fileID: 2575437086866657850}
  - {fileID: 6885514211726478873}
  - {fileID: 6565996609444133747}
  - {fileID: 1306822856814155935}
  - {fileID: 2895765830490301665}
  - {fileID: 475425722618640600}
  - {fileID: 4808849311064985268}
  - {fileID: 7881155830903495859}
  - {fileID: 4675247908843258586}
  - {fileID: 1643846315108878765}
  - {fileID: 1387438531043082572}
  - {fileID: 2151993189794856644}
  - {fileID: 8066857736101218480}
  - {fileID: 5694267148968943437}
  - {fileID: 3242545702381888392}
  - {fileID: 1154908028769885106}
  - {fileID: 144727768061468374}
  - {fileID: 3340859652822358993}
  - {fileID: 5781177120752355515}
  - {fileID: 4418919383684320735}
  - {fileID: 2738328431524890030}
  - {fileID: 163894062357605774}
  - {fileID: 6609550852231657690}
  - {fileID: 7269035911433291250}
  m_BlendShapeWeights: []
  m_RootBone: {fileID: 5553480634079021475}
  m_AABB:
    m_Center: {x: 0.00000008940697, y: 0.89193386, z: -0.012163937}
    m_Extent: {x: 0.65829575, y: 0.9524551, z: 0.32191166}
  m_DirtyAABB: 0
--- !u!1 &4041825157722324627
GameObject:
  m_ObjectHideFlags: 0
  m_CorrespondingSourceObject: {fileID: 0}
  m_PrefabInstance: {fileID: 0}
  m_PrefabAsset: {fileID: 0}
  serializedVersion: 6
  m_Component:
  - component: {fileID: 4418919383684320735}
  m_Layer: 0
  m_Name: calf_l
  m_TagString: Untagged
  m_Icon: {fileID: 0}
  m_NavMeshLayer: 0
  m_StaticEditorFlags: 0
  m_IsActive: 1
--- !u!4 &4418919383684320735
Transform:
  m_ObjectHideFlags: 0
  m_CorrespondingSourceObject: {fileID: 0}
  m_PrefabInstance: {fileID: 0}
  m_PrefabAsset: {fileID: 0}
  m_GameObject: {fileID: 4041825157722324627}
  m_LocalRotation: {x: 0.034657933, y: -0.05257046, z: 0.22374995, w: 0.9726105}
  m_LocalPosition: {x: -0.000000009313226, y: 0.31198817, z: -0.0000000027939677}
  m_LocalScale: {x: 0.99999994, y: 1, z: 0.99999994}
  m_ConstrainProportionsScale: 0
  m_Children:
  - {fileID: 2738328431524890030}
  m_Father: {fileID: 5781177120752355515}
  m_RootOrder: 0
  m_LocalEulerAnglesHint: {x: 0, y: 0, z: 0}
--- !u!1 &4539592396641419189
GameObject:
  m_ObjectHideFlags: 0
  m_CorrespondingSourceObject: {fileID: 0}
  m_PrefabInstance: {fileID: 0}
  m_PrefabAsset: {fileID: 0}
  serializedVersion: 6
  m_Component:
  - component: {fileID: 5781177120752355515}
  m_Layer: 0
  m_Name: thigh_l
  m_TagString: Untagged
  m_Icon: {fileID: 0}
  m_NavMeshLayer: 0
  m_StaticEditorFlags: 0
  m_IsActive: 1
--- !u!4 &5781177120752355515
Transform:
  m_ObjectHideFlags: 0
  m_CorrespondingSourceObject: {fileID: 0}
  m_PrefabInstance: {fileID: 0}
  m_PrefabAsset: {fileID: 0}
  m_GameObject: {fileID: 4539592396641419189}
  m_LocalRotation: {x: 0.9891819, y: 0.10959382, z: 0.06462321, w: 0.073022634}
  m_LocalPosition: {x: 0.0019309008, y: 0.06094611, z: 0.100943826}
  m_LocalScale: {x: 0.9999994, y: 1, z: 0.9999997}
  m_ConstrainProportionsScale: 0
  m_Children:
  - {fileID: 4418919383684320735}
  m_Father: {fileID: 4905079070720516257}
  m_RootOrder: 1
  m_LocalEulerAnglesHint: {x: 0, y: 0, z: 0}
--- !u!1 &4970608779444913304
GameObject:
  m_ObjectHideFlags: 0
  m_CorrespondingSourceObject: {fileID: 0}
  m_PrefabInstance: {fileID: 0}
  m_PrefabAsset: {fileID: 0}
  serializedVersion: 6
  m_Component:
  - component: {fileID: 6081689373915883512}
  m_Layer: 0
  m_Name: Skelet.c
  m_TagString: Untagged
  m_Icon: {fileID: 0}
  m_NavMeshLayer: 0
  m_StaticEditorFlags: 0
  m_IsActive: 1
--- !u!4 &6081689373915883512
Transform:
  m_ObjectHideFlags: 0
  m_CorrespondingSourceObject: {fileID: 0}
  m_PrefabInstance: {fileID: 0}
  m_PrefabAsset: {fileID: 0}
  m_GameObject: {fileID: 4970608779444913304}
  m_LocalRotation: {x: -0.7071067, y: -0.000000030908616, z: 0.000000030908623, w: 0.7071068}
  m_LocalPosition: {x: -0, y: 0, z: 0}
  m_LocalScale: {x: 1, y: 1, z: 1}
  m_ConstrainProportionsScale: 0
  m_Children:
  - {fileID: 5553480634079021475}
  m_Father: {fileID: 7720057089454331928}
  m_RootOrder: 0
  m_LocalEulerAnglesHint: {x: 0, y: 0, z: 0}
--- !u!1 &5056872698783816549
GameObject:
  m_ObjectHideFlags: 0
  m_CorrespondingSourceObject: {fileID: 0}
  m_PrefabInstance: {fileID: 0}
  m_PrefabAsset: {fileID: 0}
  serializedVersion: 6
  m_Component:
  - component: {fileID: 1154908028769885106}
  m_Layer: 0
  m_Name: thumb_02_r
  m_TagString: Untagged
  m_Icon: {fileID: 0}
  m_NavMeshLayer: 0
  m_StaticEditorFlags: 0
  m_IsActive: 1
--- !u!4 &1154908028769885106
Transform:
  m_ObjectHideFlags: 0
  m_CorrespondingSourceObject: {fileID: 0}
  m_PrefabInstance: {fileID: 0}
  m_PrefabAsset: {fileID: 0}
  m_GameObject: {fileID: 5056872698783816549}
  m_LocalRotation: {x: 0.122137055, y: 0.14330105, z: -0.1696633, w: 0.9673478}
  m_LocalPosition: {x: -0.000000603497, y: 0.02858945, z: -0.000000027939677}
  m_LocalScale: {x: 1, y: 0.99999994, z: 1}
  m_ConstrainProportionsScale: 0
  m_Children: []
  m_Father: {fileID: 3242545702381888392}
  m_RootOrder: 0
  m_LocalEulerAnglesHint: {x: 0, y: 0, z: 0}
--- !u!1 &5256899448500609645
GameObject:
  m_ObjectHideFlags: 0
  m_CorrespondingSourceObject: {fileID: 0}
  m_PrefabInstance: {fileID: 0}
  m_PrefabAsset: {fileID: 0}
  serializedVersion: 6
  m_Component:
  - component: {fileID: 163894062357605774}
  m_Layer: 0
  m_Name: thigh_r
  m_TagString: Untagged
  m_Icon: {fileID: 0}
  m_NavMeshLayer: 0
  m_StaticEditorFlags: 0
  m_IsActive: 1
--- !u!4 &163894062357605774
Transform:
  m_ObjectHideFlags: 0
  m_CorrespondingSourceObject: {fileID: 0}
  m_PrefabInstance: {fileID: 0}
  m_PrefabAsset: {fileID: 0}
  m_GameObject: {fileID: 5256899448500609645}
  m_LocalRotation: {x: 0.064623564, y: -0.07302262, z: 0.98918164, w: -0.109595686}
  m_LocalPosition: {x: 0.0019309691, y: 0.060946096, z: -0.10164993}
  m_LocalScale: {x: 0.99999803, y: 0.99999976, z: 0.9999987}
  m_ConstrainProportionsScale: 0
  m_Children:
  - {fileID: 6609550852231657690}
  m_Father: {fileID: 4905079070720516257}
  m_RootOrder: 2
  m_LocalEulerAnglesHint: {x: 0, y: 0, z: 0}
--- !u!1 &5465578805320047673
GameObject:
  m_ObjectHideFlags: 0
  m_CorrespondingSourceObject: {fileID: 0}
  m_PrefabInstance: {fileID: 0}
  m_PrefabAsset: {fileID: 0}
  serializedVersion: 6
  m_Component:
  - component: {fileID: 5553480634079021475}
  m_Layer: 0
  m_Name: root
  m_TagString: Untagged
  m_Icon: {fileID: 0}
  m_NavMeshLayer: 0
  m_StaticEditorFlags: 0
  m_IsActive: 1
--- !u!4 &5553480634079021475
Transform:
  m_ObjectHideFlags: 0
  m_CorrespondingSourceObject: {fileID: 0}
  m_PrefabInstance: {fileID: 0}
  m_PrefabAsset: {fileID: 0}
  m_GameObject: {fileID: 5465578805320047673}
  m_LocalRotation: {x: 0.7071068, y: 0.0000014554697, z: 0.0000014554694, w: 0.7071067}
  m_LocalPosition: {x: -0, y: 0, z: 0}
  m_LocalScale: {x: 1, y: 1, z: 1}
  m_ConstrainProportionsScale: 0
  m_Children:
  - {fileID: 4905079070720516257}
  m_Father: {fileID: 6081689373915883512}
  m_RootOrder: 0
  m_LocalEulerAnglesHint: {x: 0, y: 0, z: 0}
--- !u!1 &6745690005307663480
GameObject:
  m_ObjectHideFlags: 0
  m_CorrespondingSourceObject: {fileID: 0}
  m_PrefabInstance: {fileID: 0}
  m_PrefabAsset: {fileID: 0}
  serializedVersion: 6
  m_Component:
  - component: {fileID: 2738328431524890030}
  m_Layer: 0
  m_Name: foot_l
  m_TagString: Untagged
  m_Icon: {fileID: 0}
  m_NavMeshLayer: 0
  m_StaticEditorFlags: 0
  m_IsActive: 1
--- !u!4 &2738328431524890030
Transform:
  m_ObjectHideFlags: 0
  m_CorrespondingSourceObject: {fileID: 0}
  m_PrefabInstance: {fileID: 0}
  m_PrefabAsset: {fileID: 0}
  m_GameObject: {fileID: 6745690005307663480}
  m_LocalRotation: {x: 0.7823356, y: 0.621982, z: 0.032570742, w: 0.005359399}
  m_LocalPosition: {x: -0.000060845516, y: 0.29228517, z: -0.00028398275}
  m_LocalScale: {x: 0.9999999, y: 0.99999964, z: 1}
  m_ConstrainProportionsScale: 0
  m_Children: []
  m_Father: {fileID: 4418919383684320735}
  m_RootOrder: 0
  m_LocalEulerAnglesHint: {x: 0, y: 0, z: 0}
--- !u!1 &6865267348873668467
GameObject:
  m_ObjectHideFlags: 0
  m_CorrespondingSourceObject: {fileID: 0}
  m_PrefabInstance: {fileID: 0}
  m_PrefabAsset: {fileID: 0}
  serializedVersion: 6
  m_Component:
  - component: {fileID: 7720057089454331928}
  - component: {fileID: 3170078563231725475}
  - component: {fileID: 6454531125677108437}
  m_Layer: 0
  m_Name: '[Visual]'
  m_TagString: Untagged
  m_Icon: {fileID: 0}
  m_NavMeshLayer: 0
  m_StaticEditorFlags: 0
  m_IsActive: 1
--- !u!4 &7720057089454331928
Transform:
  m_ObjectHideFlags: 0
  m_CorrespondingSourceObject: {fileID: 0}
  m_PrefabInstance: {fileID: 0}
  m_PrefabAsset: {fileID: 0}
  m_GameObject: {fileID: 6865267348873668467}
  m_LocalRotation: {x: -0, y: -0, z: -0, w: 1}
  m_LocalPosition: {x: 0, y: 0, z: 0}
  m_LocalScale: {x: 1, y: 1, z: 1}
  m_ConstrainProportionsScale: 0
  m_Children:
  - {fileID: 6081689373915883512}
  - {fileID: 2138328503329201739}
  m_Father: {fileID: 2248434285133749092}
  m_RootOrder: 0
  m_LocalEulerAnglesHint: {x: 0, y: 0, z: 0}
--- !u!95 &3170078563231725475
Animator:
  serializedVersion: 4
  m_ObjectHideFlags: 0
  m_CorrespondingSourceObject: {fileID: 0}
  m_PrefabInstance: {fileID: 0}
  m_PrefabAsset: {fileID: 0}
  m_GameObject: {fileID: 6865267348873668467}
  m_Enabled: 1
  m_Avatar: {fileID: 9000000, guid: fa7f36c71b9e8fa4798df3a931c2fd92, type: 3}
  m_Controller: {fileID: 9100000, guid: b41e3a46bd3e24e1f881261176890465, type: 2}
  m_CullingMode: 1
  m_UpdateMode: 0
  m_ApplyRootMotion: 0
  m_LinearVelocityBlending: 0
  m_StabilizeFeet: 0
  m_WarningMessage: 
  m_HasTransformHierarchy: 1
  m_AllowConstantClipSamplingOptimization: 1
  m_KeepAnimatorControllerStateOnDisable: 0
--- !u!114 &6454531125677108437
MonoBehaviour:
  m_ObjectHideFlags: 0
  m_CorrespondingSourceObject: {fileID: 0}
  m_PrefabInstance: {fileID: 0}
  m_PrefabAsset: {fileID: 0}
  m_GameObject: {fileID: 6865267348873668467}
  m_Enabled: 1
  m_EditorHideFlags: 0
  m_Script: {fileID: 11500000, guid: 8117d5aa04024e418c4045f53a2b9faf, type: 3}
  m_Name: 
  m_EditorClassIdentifier: 
--- !u!1 &7199983468824933355
GameObject:
  m_ObjectHideFlags: 0
  m_CorrespondingSourceObject: {fileID: 0}
  m_PrefabInstance: {fileID: 0}
  m_PrefabAsset: {fileID: 0}
  serializedVersion: 6
  m_Component:
  - component: {fileID: 7881155830903495859}
  m_Layer: 0
  m_Name: thumb_02_l
  m_TagString: Untagged
  m_Icon: {fileID: 0}
  m_NavMeshLayer: 0
  m_StaticEditorFlags: 0
  m_IsActive: 1
--- !u!4 &7881155830903495859
Transform:
  m_ObjectHideFlags: 0
  m_CorrespondingSourceObject: {fileID: 0}
  m_PrefabInstance: {fileID: 0}
  m_PrefabAsset: {fileID: 0}
  m_GameObject: {fileID: 7199983468824933355}
  m_LocalRotation: {x: 0.12213694, y: -0.14330086, z: 0.1696633, w: 0.96734786}
  m_LocalPosition: {x: 0.00000055879354, y: 0.028589413, z: -0.000000027939677}
  m_LocalScale: {x: 0.9999999, y: 0.9999998, z: 0.99999976}
  m_ConstrainProportionsScale: 0
  m_Children: []
  m_Father: {fileID: 4808849311064985268}
  m_RootOrder: 0
  m_LocalEulerAnglesHint: {x: 0, y: 0, z: 0}
--- !u!1 &7404716639094910459
GameObject:
  m_ObjectHideFlags: 0
  m_CorrespondingSourceObject: {fileID: 0}
  m_PrefabInstance: {fileID: 0}
  m_PrefabAsset: {fileID: 0}
  serializedVersion: 6
  m_Component:
  - component: {fileID: 3242545702381888392}
  m_Layer: 0
  m_Name: thumb_01_r
  m_TagString: Untagged
  m_Icon: {fileID: 0}
  m_NavMeshLayer: 0
  m_StaticEditorFlags: 0
  m_IsActive: 1
--- !u!4 &3242545702381888392
Transform:
  m_ObjectHideFlags: 0
  m_CorrespondingSourceObject: {fileID: 0}
  m_PrefabInstance: {fileID: 0}
  m_PrefabAsset: {fileID: 0}
  m_GameObject: {fileID: 7404716639094910459}
  m_LocalRotation: {x: 0.48533788, y: 0.5553386, z: 0.10012554, w: 0.66784805}
  m_LocalPosition: {x: 0.013693323, y: 0.037103057, z: 0.053495865}
  m_LocalScale: {x: 0.9999998, y: 0.9999999, z: 0.99999994}
  m_ConstrainProportionsScale: 0
  m_Children:
  - {fileID: 1154908028769885106}
  m_Father: {fileID: 2151993189794856644}
  m_RootOrder: 1
  m_LocalEulerAnglesHint: {x: 0, y: 0, z: 0}
--- !u!1 &7455131854162157427
GameObject:
  m_ObjectHideFlags: 0
  m_CorrespondingSourceObject: {fileID: 0}
  m_PrefabInstance: {fileID: 0}
  m_PrefabAsset: {fileID: 0}
  serializedVersion: 6
  m_Component:
  - component: {fileID: 2248434285133749092}
  - component: {fileID: 7260902282966990955}
  - component: {fileID: 1969170159}
  m_Layer: 0
  m_Name: Character
  m_TagString: Untagged
  m_Icon: {fileID: 0}
  m_NavMeshLayer: 0
  m_StaticEditorFlags: 0
  m_IsActive: 1
--- !u!4 &2248434285133749092
Transform:
  m_ObjectHideFlags: 0
  m_CorrespondingSourceObject: {fileID: 0}
  m_PrefabInstance: {fileID: 0}
  m_PrefabAsset: {fileID: 0}
  m_GameObject: {fileID: 7455131854162157427}
  m_LocalRotation: {x: 0, y: 0, z: 0, w: 1}
  m_LocalPosition: {x: 1.5, y: 0, z: -5.25}
  m_LocalScale: {x: 1, y: 1, z: 1}
  m_ConstrainProportionsScale: 0
  m_Children:
  - {fileID: 7720057089454331928}
  - {fileID: 2197074333859340304}
  - {fileID: 4783631709067173296}
  - {fileID: 7574219461443284527}
  m_Father: {fileID: 0}
  m_RootOrder: 0
  m_LocalEulerAnglesHint: {x: 0, y: 0, z: 0}
--- !u!114 &7260902282966990955
MonoBehaviour:
  m_ObjectHideFlags: 0
  m_CorrespondingSourceObject: {fileID: 0}
  m_PrefabInstance: {fileID: 0}
  m_PrefabAsset: {fileID: 0}
  m_GameObject: {fileID: 7455131854162157427}
  m_Enabled: 1
  m_EditorHideFlags: 0
  m_Script: {fileID: 11500000, guid: 679b178dd02e41fbaff85986d677343a, type: 3}
  m_Name: 
  m_EditorClassIdentifier: 
  core:
    moveComponent:
      transform: {fileID: 2248434285133749092}
      moveSpeed:
        value: 5
      moveDirection:
        value: {x: 0, y: 0, z: 0}
      isMoving:
        value: 0
    lookComponent:
      transform: {fileID: 7720057089454331928}
      lookDirection:
        value: {x: 0, y: 0, z: 0}
    gatherComponent: {}
    resourceStorage:
      capacity: 5
      current: 0
    axe: {fileID: 4861496292065626305}
  view:
    animator: {fileID: 3170078563231725475}
    dispatcher: {fileID: 6454531125677108437}
  ai:
    blackboard: {fileID: 4455923611556452129}
    behaviour: {fileID: 2900965232104599671}
--- !u!114 &1969170159
MonoBehaviour:
  m_ObjectHideFlags: 0
  m_CorrespondingSourceObject: {fileID: 0}
  m_PrefabInstance: {fileID: 0}
  m_PrefabAsset: {fileID: 0}
  m_GameObject: {fileID: 7455131854162157427}
  m_Enabled: 0
  m_EditorHideFlags: 0
  m_Script: {fileID: 11500000, guid: b14dacee9fea4572a185928d04cd5eb1, type: 3}
  m_Name: 
  m_EditorClassIdentifier: 
  character: {fileID: 7260902282966990955}
--- !u!1 &7484532441032762191
GameObject:
  m_ObjectHideFlags: 0
  m_CorrespondingSourceObject: {fileID: 0}
  m_PrefabInstance: {fileID: 0}
  m_PrefabAsset: {fileID: 0}
  serializedVersion: 6
  m_Component:
  - component: {fileID: 144727768061468374}
  m_Layer: 0
  m_Name: neck_01
  m_TagString: Untagged
  m_Icon: {fileID: 0}
  m_NavMeshLayer: 0
  m_StaticEditorFlags: 0
  m_IsActive: 1
--- !u!4 &144727768061468374
Transform:
  m_ObjectHideFlags: 0
  m_CorrespondingSourceObject: {fileID: 0}
  m_PrefabInstance: {fileID: 0}
  m_PrefabAsset: {fileID: 0}
  m_GameObject: {fileID: 7484532441032762191}
  m_LocalRotation: {x: 0.00054795545, y: 0.000073926196, z: -0.08818183, w: 0.99610424}
  m_LocalPosition: {x: 0.00002404675, y: 0.33257636, z: 0.00001432071}
  m_LocalScale: {x: 0.99999994, y: 1.0000001, z: 1}
  m_ConstrainProportionsScale: 0
  m_Children:
  - {fileID: 3340859652822358993}
  m_Father: {fileID: 5946540273700661836}
  m_RootOrder: 2
  m_LocalEulerAnglesHint: {x: 0, y: 0, z: 0}
--- !u!1 &7773308097712563859
GameObject:
  m_ObjectHideFlags: 0
  m_CorrespondingSourceObject: {fileID: 0}
  m_PrefabInstance: {fileID: 0}
  m_PrefabAsset: {fileID: 0}
  serializedVersion: 6
  m_Component:
  - component: {fileID: 6609550852231657690}
  m_Layer: 0
  m_Name: calf_r
  m_TagString: Untagged
  m_Icon: {fileID: 0}
  m_NavMeshLayer: 0
  m_StaticEditorFlags: 0
  m_IsActive: 1
--- !u!4 &6609550852231657690
Transform:
  m_ObjectHideFlags: 0
  m_CorrespondingSourceObject: {fileID: 0}
  m_PrefabInstance: {fileID: 0}
  m_PrefabAsset: {fileID: 0}
  m_GameObject: {fileID: 7773308097712563859}
  m_LocalRotation: {x: 0.034657765, y: 0.052570354, z: -0.22375268, w: 0.9726099}
  m_LocalPosition: {x: 0.000000018626451, y: 0.3119883, z: -0.000000008381903}
  m_LocalScale: {x: 0.99999994, y: 0.9999998, z: 0.9999999}
  m_ConstrainProportionsScale: 0
  m_Children:
  - {fileID: 7269035911433291250}
  m_Father: {fileID: 163894062357605774}
  m_RootOrder: 0
  m_LocalEulerAnglesHint: {x: 0, y: 0, z: 0}
--- !u!1 &7809264015497992000
GameObject:
  m_ObjectHideFlags: 0
  m_CorrespondingSourceObject: {fileID: 0}
  m_PrefabInstance: {fileID: 0}
  m_PrefabAsset: {fileID: 0}
  serializedVersion: 6
  m_Component:
  - component: {fileID: 8066857736101218480}
  m_Layer: 0
  m_Name: index_01_r
  m_TagString: Untagged
  m_Icon: {fileID: 0}
  m_NavMeshLayer: 0
  m_StaticEditorFlags: 0
  m_IsActive: 1
--- !u!4 &8066857736101218480
Transform:
  m_ObjectHideFlags: 0
  m_CorrespondingSourceObject: {fileID: 0}
  m_PrefabInstance: {fileID: 0}
  m_PrefabAsset: {fileID: 0}
  m_GameObject: {fileID: 7809264015497992000}
  m_LocalRotation: {x: 0.053758767, y: 0.18280417, z: -0.109233424, w: 0.97558224}
  m_LocalPosition: {x: 0.012653809, y: 0.0621841, z: -0.004037774}
  m_LocalScale: {x: 0.99999994, y: 1, z: 0.99999994}
  m_ConstrainProportionsScale: 0
  m_Children:
  - {fileID: 5694267148968943437}
  m_Father: {fileID: 2151993189794856644}
  m_RootOrder: 0
  m_LocalEulerAnglesHint: {x: 0, y: 0, z: 0}
--- !u!1 &7956740615130060453
GameObject:
  m_ObjectHideFlags: 0
  m_CorrespondingSourceObject: {fileID: 0}
  m_PrefabInstance: {fileID: 0}
  m_PrefabAsset: {fileID: 0}
  serializedVersion: 6
  m_Component:
  - component: {fileID: 4808849311064985268}
  m_Layer: 0
  m_Name: thumb_01_l
  m_TagString: Untagged
  m_Icon: {fileID: 0}
  m_NavMeshLayer: 0
  m_StaticEditorFlags: 0
  m_IsActive: 1
--- !u!4 &4808849311064985268
Transform:
  m_ObjectHideFlags: 0
  m_CorrespondingSourceObject: {fileID: 0}
  m_PrefabInstance: {fileID: 0}
  m_PrefabAsset: {fileID: 0}
  m_GameObject: {fileID: 7956740615130060453}
  m_LocalRotation: {x: 0.48533848, y: -0.55533874, z: -0.10012529, w: 0.6678476}
  m_LocalPosition: {x: -0.013693362, y: 0.037103098, z: 0.053495854}
  m_LocalScale: {x: 1.0000001, y: 1.0000001, z: 1}
  m_ConstrainProportionsScale: 0
  m_Children:
  - {fileID: 7881155830903495859}
  m_Father: {fileID: 1306822856814155935}
  m_RootOrder: 1
  m_LocalEulerAnglesHint: {x: 0, y: 0, z: 0}
--- !u!1 &8035621429436868330
GameObject:
  m_ObjectHideFlags: 0
  m_CorrespondingSourceObject: {fileID: 0}
  m_PrefabInstance: {fileID: 0}
  m_PrefabAsset: {fileID: 0}
  serializedVersion: 6
  m_Component:
  - component: {fileID: 1643846315108878765}
  m_Layer: 0
  m_Name: upperarm_r
  m_TagString: Untagged
  m_Icon: {fileID: 0}
  m_NavMeshLayer: 0
  m_StaticEditorFlags: 0
  m_IsActive: 1
--- !u!4 &1643846315108878765
Transform:
  m_ObjectHideFlags: 0
  m_CorrespondingSourceObject: {fileID: 0}
  m_PrefabInstance: {fileID: 0}
  m_PrefabAsset: {fileID: 0}
  m_GameObject: {fileID: 8035621429436868330}
  m_LocalRotation: {x: 0.2138062, y: 0.059386298, z: 0.16481291, w: 0.9610395}
  m_LocalPosition: {x: 0.0000000055879354, y: 0.13966921, z: 0.0000000060535967}
  m_LocalScale: {x: 1, y: 1.0000001, z: 1}
  m_ConstrainProportionsScale: 0
  m_Children:
  - {fileID: 1387438531043082572}
  m_Father: {fileID: 4675247908843258586}
  m_RootOrder: 0
  m_LocalEulerAnglesHint: {x: 0, y: 0, z: 0}
--- !u!1 &8097505022043105543
GameObject:
  m_ObjectHideFlags: 0
  m_CorrespondingSourceObject: {fileID: 0}
  m_PrefabInstance: {fileID: 0}
  m_PrefabAsset: {fileID: 0}
  serializedVersion: 6
  m_Component:
  - component: {fileID: 5946540273700661836}
  m_Layer: 0
  m_Name: spine_03
  m_TagString: Untagged
  m_Icon: {fileID: 0}
  m_NavMeshLayer: 0
  m_StaticEditorFlags: 0
  m_IsActive: 1
--- !u!4 &5946540273700661836
Transform:
  m_ObjectHideFlags: 0
  m_CorrespondingSourceObject: {fileID: 0}
  m_PrefabInstance: {fileID: 0}
  m_PrefabAsset: {fileID: 0}
  m_GameObject: {fileID: 8097505022043105543}
  m_LocalRotation: {x: -0.0005527358, y: -0.000014614251, z: -0.019595085, w: 0.99980783}
  m_LocalPosition: {x: -0.000000001973239, y: 0.11913515, z: -2.0842439e-11}
  m_LocalScale: {x: 1, y: 1, z: 1}
  m_ConstrainProportionsScale: 0
  m_Children:
  - {fileID: 2575437086866657850}
  - {fileID: 4675247908843258586}
  - {fileID: 144727768061468374}
  m_Father: {fileID: 7524483714105286443}
  m_RootOrder: 0
  m_LocalEulerAnglesHint: {x: 0, y: 0, z: 0}
--- !u!1 &8144003405627074064
GameObject:
  m_ObjectHideFlags: 0
  m_CorrespondingSourceObject: {fileID: 0}
  m_PrefabInstance: {fileID: 0}
  m_PrefabAsset: {fileID: 0}
  serializedVersion: 6
  m_Component:
  - component: {fileID: 2151993189794856644}
  m_Layer: 0
  m_Name: hand_r
  m_TagString: Untagged
  m_Icon: {fileID: 0}
  m_NavMeshLayer: 0
  m_StaticEditorFlags: 0
  m_IsActive: 1
--- !u!4 &2151993189794856644
Transform:
  m_ObjectHideFlags: 0
  m_CorrespondingSourceObject: {fileID: 0}
  m_PrefabInstance: {fileID: 0}
  m_PrefabAsset: {fileID: 0}
  m_GameObject: {fileID: 8144003405627074064}
  m_LocalRotation: {x: -0.19132513, y: -0.5592929, z: 0.019054549, w: 0.8063641}
  m_LocalPosition: {x: 0.000000020489097, y: 0.19866185, z: 0.00000003259629}
  m_LocalScale: {x: 0.9999998, y: 0.9999996, z: 0.9999998}
  m_ConstrainProportionsScale: 0
  m_Children:
  - {fileID: 8066857736101218480}
  - {fileID: 3242545702381888392}
  m_Father: {fileID: 1387438531043082572}
  m_RootOrder: 0
  m_LocalEulerAnglesHint: {x: 0, y: 0, z: 0}
--- !u!1 &8546329571624017123
GameObject:
  m_ObjectHideFlags: 0
  m_CorrespondingSourceObject: {fileID: 0}
  m_PrefabInstance: {fileID: 0}
  m_PrefabAsset: {fileID: 0}
  serializedVersion: 6
  m_Component:
  - component: {fileID: 7269035911433291250}
  m_Layer: 0
  m_Name: foot_r
  m_TagString: Untagged
  m_Icon: {fileID: 0}
  m_NavMeshLayer: 0
  m_StaticEditorFlags: 0
  m_IsActive: 1
--- !u!4 &7269035911433291250
Transform:
  m_ObjectHideFlags: 0
  m_CorrespondingSourceObject: {fileID: 0}
  m_PrefabInstance: {fileID: 0}
  m_PrefabAsset: {fileID: 0}
  m_GameObject: {fileID: 8546329571624017123}
  m_LocalRotation: {x: 0.7823185, y: -0.6223314, z: -0.025658494, w: -0.0048111854}
  m_LocalPosition: {x: 0.000060849008, y: 0.29228517, z: -0.00028399628}
  m_LocalScale: {x: 1, y: 1, z: 1}
  m_ConstrainProportionsScale: 0
  m_Children: []
  m_Father: {fileID: 6609550852231657690}
  m_RootOrder: 0
  m_LocalEulerAnglesHint: {x: 0, y: 0, z: 0}
--- !u!1 &8719996360643179494
GameObject:
  m_ObjectHideFlags: 0
  m_CorrespondingSourceObject: {fileID: 0}
  m_PrefabInstance: {fileID: 0}
  m_PrefabAsset: {fileID: 0}
  serializedVersion: 6
  m_Component:
  - component: {fileID: 1387438531043082572}
  m_Layer: 0
  m_Name: lowerarm_r
  m_TagString: Untagged
  m_Icon: {fileID: 0}
  m_NavMeshLayer: 0
  m_StaticEditorFlags: 0
  m_IsActive: 1
--- !u!4 &1387438531043082572
Transform:
  m_ObjectHideFlags: 0
  m_CorrespondingSourceObject: {fileID: 0}
  m_PrefabInstance: {fileID: 0}
  m_PrefabAsset: {fileID: 0}
  m_GameObject: {fileID: 8719996360643179494}
  m_LocalRotation: {x: 0.08541835, y: -0.10010086, z: 0.23101637, w: 0.9640099}
  m_LocalPosition: {x: 0.0000000018626451, y: 0.26387748, z: -0.0000000011641532}
  m_LocalScale: {x: 0.99999994, y: 0.99999994, z: 0.99999994}
  m_ConstrainProportionsScale: 0
  m_Children:
  - {fileID: 2151993189794856644}
  m_Father: {fileID: 1643846315108878765}
  m_RootOrder: 0
  m_LocalEulerAnglesHint: {x: 0, y: 0, z: 0}
--- !u!1 &8745032684151578370
GameObject:
  m_ObjectHideFlags: 0
  m_CorrespondingSourceObject: {fileID: 0}
  m_PrefabInstance: {fileID: 0}
  m_PrefabAsset: {fileID: 0}
  serializedVersion: 6
  m_Component:
  - component: {fileID: 2575437086866657850}
  m_Layer: 0
  m_Name: clavicle_l
  m_TagString: Untagged
  m_Icon: {fileID: 0}
  m_NavMeshLayer: 0
  m_StaticEditorFlags: 0
  m_IsActive: 1
--- !u!4 &2575437086866657850
Transform:
  m_ObjectHideFlags: 0
  m_CorrespondingSourceObject: {fileID: 0}
  m_PrefabInstance: {fileID: 0}
  m_PrefabAsset: {fileID: 0}
  m_GameObject: {fileID: 8745032684151578370}
  m_LocalRotation: {x: 0.75857526, y: -0.12841858, z: 0.1466116, w: 0.6217534}
  m_LocalPosition: {x: 0.015249783, y: 0.3106875, z: 0.01920408}
  m_LocalScale: {x: 1, y: 1, z: 1}
  m_ConstrainProportionsScale: 0
  m_Children:
  - {fileID: 6885514211726478873}
  m_Father: {fileID: 5946540273700661836}
  m_RootOrder: 0
  m_LocalEulerAnglesHint: {x: 0, y: 0, z: 0}
--- !u!1 &9191964427751460956
GameObject:
  m_ObjectHideFlags: 0
  m_CorrespondingSourceObject: {fileID: 0}
  m_PrefabInstance: {fileID: 0}
  m_PrefabAsset: {fileID: 0}
  serializedVersion: 6
  m_Component:
  - component: {fileID: 6487902138802140089}
  m_Layer: 0
  m_Name: spine_01
  m_TagString: Untagged
  m_Icon: {fileID: 0}
  m_NavMeshLayer: 0
  m_StaticEditorFlags: 0
  m_IsActive: 1
--- !u!4 &6487902138802140089
Transform:
  m_ObjectHideFlags: 0
  m_CorrespondingSourceObject: {fileID: 0}
  m_PrefabInstance: {fileID: 0}
  m_PrefabAsset: {fileID: 0}
  m_GameObject: {fileID: 9191964427751460956}
  m_LocalRotation: {x: 0.000000010946637, y: 0.000000010512135, z: -0.044567246, w: 0.9990064}
  m_LocalPosition: {x: 0.004331295, y: 0.07350047, z: 0.0000000013029043}
  m_LocalScale: {x: 1.0000001, y: 1, z: 1}
  m_ConstrainProportionsScale: 0
  m_Children:
  - {fileID: 7524483714105286443}
  m_Father: {fileID: 4905079070720516257}
  m_RootOrder: 0
  m_LocalEulerAnglesHint: {x: 0, y: 0, z: 0}
--- !u!1001 &509130301876754586
PrefabInstance:
  m_ObjectHideFlags: 0
  serializedVersion: 2
  m_Modification:
    m_TransformParent: {fileID: 5694267148968943437}
    m_Modifications:
    - target: {fileID: 8125178464805537549, guid: 1db712da2d15343ef974ff61beeba2c9, type: 3}
      propertyPath: m_RootOrder
      value: 0
      objectReference: {fileID: 0}
    - target: {fileID: 8125178464805537549, guid: 1db712da2d15343ef974ff61beeba2c9, type: 3}
      propertyPath: m_LocalScale.x
      value: 0.726
      objectReference: {fileID: 0}
    - target: {fileID: 8125178464805537549, guid: 1db712da2d15343ef974ff61beeba2c9, type: 3}
      propertyPath: m_LocalScale.y
      value: 0.726
      objectReference: {fileID: 0}
    - target: {fileID: 8125178464805537549, guid: 1db712da2d15343ef974ff61beeba2c9, type: 3}
      propertyPath: m_LocalScale.z
      value: 0.726
      objectReference: {fileID: 0}
    - target: {fileID: 8125178464805537549, guid: 1db712da2d15343ef974ff61beeba2c9, type: 3}
      propertyPath: m_LocalPosition.x
      value: 0.035
      objectReference: {fileID: 0}
    - target: {fileID: 8125178464805537549, guid: 1db712da2d15343ef974ff61beeba2c9, type: 3}
      propertyPath: m_LocalPosition.y
      value: -0.078
      objectReference: {fileID: 0}
    - target: {fileID: 8125178464805537549, guid: 1db712da2d15343ef974ff61beeba2c9, type: 3}
      propertyPath: m_LocalPosition.z
      value: -0.037
      objectReference: {fileID: 0}
    - target: {fileID: 8125178464805537549, guid: 1db712da2d15343ef974ff61beeba2c9, type: 3}
      propertyPath: m_LocalRotation.w
      value: -0.9647378
      objectReference: {fileID: 0}
    - target: {fileID: 8125178464805537549, guid: 1db712da2d15343ef974ff61beeba2c9, type: 3}
      propertyPath: m_LocalRotation.x
      value: 0.13699986
      objectReference: {fileID: 0}
    - target: {fileID: 8125178464805537549, guid: 1db712da2d15343ef974ff61beeba2c9, type: 3}
      propertyPath: m_LocalRotation.y
      value: 0.20135126
      objectReference: {fileID: 0}
    - target: {fileID: 8125178464805537549, guid: 1db712da2d15343ef974ff61beeba2c9, type: 3}
      propertyPath: m_LocalRotation.z
      value: 0.09984893
      objectReference: {fileID: 0}
    - target: {fileID: 8125178464805537549, guid: 1db712da2d15343ef974ff61beeba2c9, type: 3}
      propertyPath: m_LocalEulerAnglesHint.x
      value: -17.731
      objectReference: {fileID: 0}
    - target: {fileID: 8125178464805537549, guid: 1db712da2d15343ef974ff61beeba2c9, type: 3}
      propertyPath: m_LocalEulerAnglesHint.y
      value: -22.281
      objectReference: {fileID: 0}
    - target: {fileID: 8125178464805537549, guid: 1db712da2d15343ef974ff61beeba2c9, type: 3}
      propertyPath: m_LocalEulerAnglesHint.z
      value: 351.701
      objectReference: {fileID: 0}
    - target: {fileID: 8901855523932151223, guid: 1db712da2d15343ef974ff61beeba2c9, type: 3}
      propertyPath: m_Name
      value: Axe
      objectReference: {fileID: 0}
    - target: {fileID: 8901855523932151223, guid: 1db712da2d15343ef974ff61beeba2c9, type: 3}
      propertyPath: m_IsActive
      value: 0
      objectReference: {fileID: 0}
    m_RemovedComponents: []
  m_SourcePrefab: {fileID: 100100000, guid: 1db712da2d15343ef974ff61beeba2c9, type: 3}
--- !u!4 &8634145456884227991 stripped
Transform:
  m_CorrespondingSourceObject: {fileID: 8125178464805537549, guid: 1db712da2d15343ef974ff61beeba2c9, type: 3}
  m_PrefabInstance: {fileID: 509130301876754586}
  m_PrefabAsset: {fileID: 0}
--- !u!1 &8978336115561022765 stripped
GameObject:
  m_CorrespondingSourceObject: {fileID: 8901855523932151223, guid: 1db712da2d15343ef974ff61beeba2c9, type: 3}
  m_PrefabInstance: {fileID: 509130301876754586}
  m_PrefabAsset: {fileID: 0}
--- !u!114 &9017079825106395785
MonoBehaviour:
  m_ObjectHideFlags: 0
  m_CorrespondingSourceObject: {fileID: 0}
  m_PrefabInstance: {fileID: 0}
  m_PrefabAsset: {fileID: 0}
  m_GameObject: {fileID: 8978336115561022765}
  m_Enabled: 1
  m_EditorHideFlags: 0
  m_Script: {fileID: 11500000, guid: 1548198ff7e0d4e129941fba96b42add, type: 3}
  m_Name: 
  m_EditorClassIdentifier: 
  center: {fileID: 9039990570044979219}
  radius: 0.35
  layerMask:
    serializedVersion: 2
    m_Bits: 0
--- !u!4 &9039990570044979219 stripped
Transform:
  m_CorrespondingSourceObject: {fileID: 8819372745405571209, guid: 1db712da2d15343ef974ff61beeba2c9, type: 3}
  m_PrefabInstance: {fileID: 509130301876754586}
  m_PrefabAsset: {fileID: 0}
--- !u!1001 &857202842383702673
PrefabInstance:
  m_ObjectHideFlags: 0
  serializedVersion: 2
  m_Modification:
    m_TransformParent: {fileID: 4783631709067173296}
    m_Modifications:
    - target: {fileID: 7946380673508146245, guid: f2a4b0a481f1445659acaeb51310e2b4, type: 3}
      propertyPath: m_Pivot.x
      value: 0.5
      objectReference: {fileID: 0}
    - target: {fileID: 7946380673508146245, guid: f2a4b0a481f1445659acaeb51310e2b4, type: 3}
      propertyPath: m_Pivot.y
      value: 0.5
      objectReference: {fileID: 0}
    - target: {fileID: 7946380673508146245, guid: f2a4b0a481f1445659acaeb51310e2b4, type: 3}
      propertyPath: m_RootOrder
      value: 1
      objectReference: {fileID: 0}
    - target: {fileID: 7946380673508146245, guid: f2a4b0a481f1445659acaeb51310e2b4, type: 3}
      propertyPath: m_AnchorMax.x
      value: 0.5
      objectReference: {fileID: 0}
    - target: {fileID: 7946380673508146245, guid: f2a4b0a481f1445659acaeb51310e2b4, type: 3}
      propertyPath: m_AnchorMax.y
      value: 0.5
      objectReference: {fileID: 0}
    - target: {fileID: 7946380673508146245, guid: f2a4b0a481f1445659acaeb51310e2b4, type: 3}
      propertyPath: m_AnchorMin.x
      value: 0.5
      objectReference: {fileID: 0}
    - target: {fileID: 7946380673508146245, guid: f2a4b0a481f1445659acaeb51310e2b4, type: 3}
      propertyPath: m_AnchorMin.y
      value: 0.5
      objectReference: {fileID: 0}
    - target: {fileID: 7946380673508146245, guid: f2a4b0a481f1445659acaeb51310e2b4, type: 3}
      propertyPath: m_SizeDelta.x
      value: 150
      objectReference: {fileID: 0}
    - target: {fileID: 7946380673508146245, guid: f2a4b0a481f1445659acaeb51310e2b4, type: 3}
      propertyPath: m_SizeDelta.y
      value: 60
      objectReference: {fileID: 0}
    - target: {fileID: 7946380673508146245, guid: f2a4b0a481f1445659acaeb51310e2b4, type: 3}
      propertyPath: m_LocalPosition.x
      value: 0
      objectReference: {fileID: 0}
    - target: {fileID: 7946380673508146245, guid: f2a4b0a481f1445659acaeb51310e2b4, type: 3}
      propertyPath: m_LocalPosition.y
      value: 0
      objectReference: {fileID: 0}
    - target: {fileID: 7946380673508146245, guid: f2a4b0a481f1445659acaeb51310e2b4, type: 3}
      propertyPath: m_LocalPosition.z
      value: 0
      objectReference: {fileID: 0}
    - target: {fileID: 7946380673508146245, guid: f2a4b0a481f1445659acaeb51310e2b4, type: 3}
      propertyPath: m_LocalRotation.w
      value: 1
      objectReference: {fileID: 0}
    - target: {fileID: 7946380673508146245, guid: f2a4b0a481f1445659acaeb51310e2b4, type: 3}
      propertyPath: m_LocalRotation.x
      value: 0
      objectReference: {fileID: 0}
    - target: {fileID: 7946380673508146245, guid: f2a4b0a481f1445659acaeb51310e2b4, type: 3}
      propertyPath: m_LocalRotation.y
      value: 0
      objectReference: {fileID: 0}
    - target: {fileID: 7946380673508146245, guid: f2a4b0a481f1445659acaeb51310e2b4, type: 3}
      propertyPath: m_LocalRotation.z
      value: 0
      objectReference: {fileID: 0}
    - target: {fileID: 7946380673508146245, guid: f2a4b0a481f1445659acaeb51310e2b4, type: 3}
      propertyPath: m_AnchoredPosition.x
      value: 0
      objectReference: {fileID: 0}
    - target: {fileID: 7946380673508146245, guid: f2a4b0a481f1445659acaeb51310e2b4, type: 3}
      propertyPath: m_AnchoredPosition.y
      value: 35
      objectReference: {fileID: 0}
    - target: {fileID: 7946380673508146245, guid: f2a4b0a481f1445659acaeb51310e2b4, type: 3}
      propertyPath: m_LocalEulerAnglesHint.x
      value: 0
      objectReference: {fileID: 0}
    - target: {fileID: 7946380673508146245, guid: f2a4b0a481f1445659acaeb51310e2b4, type: 3}
      propertyPath: m_LocalEulerAnglesHint.y
      value: 0
      objectReference: {fileID: 0}
    - target: {fileID: 7946380673508146245, guid: f2a4b0a481f1445659acaeb51310e2b4, type: 3}
      propertyPath: m_LocalEulerAnglesHint.z
      value: 0
      objectReference: {fileID: 0}
    - target: {fileID: 8045708095036744834, guid: f2a4b0a481f1445659acaeb51310e2b4, type: 3}
      propertyPath: m_Name
      value: DialogNoTrees
      objectReference: {fileID: 0}
    - target: {fileID: 8045708095036744834, guid: f2a4b0a481f1445659acaeb51310e2b4, type: 3}
      propertyPath: m_IsActive
      value: 0
      objectReference: {fileID: 0}
    - target: {fileID: 9009484458777973558, guid: f2a4b0a481f1445659acaeb51310e2b4, type: 3}
      propertyPath: m_text
      value: "\u0414\u0435\u0440\u0435\u0432\u044C\u0435\u0432 \u043D\u0435\u0442"
      objectReference: {fileID: 0}
    m_RemovedComponents: []
  m_SourcePrefab: {fileID: 100100000, guid: f2a4b0a481f1445659acaeb51310e2b4, type: 3}
--- !u!1 &7227571051131715091 stripped
GameObject:
  m_CorrespondingSourceObject: {fileID: 8045708095036744834, guid: f2a4b0a481f1445659acaeb51310e2b4, type: 3}
  m_PrefabInstance: {fileID: 857202842383702673}
  m_PrefabAsset: {fileID: 0}
--- !u!224 &7323506582477022932 stripped
RectTransform:
  m_CorrespondingSourceObject: {fileID: 7946380673508146245, guid: f2a4b0a481f1445659acaeb51310e2b4, type: 3}
  m_PrefabInstance: {fileID: 857202842383702673}
  m_PrefabAsset: {fileID: 0}
--- !u!1001 &1864321726805846306
PrefabInstance:
  m_ObjectHideFlags: 0
  serializedVersion: 2
  m_Modification:
    m_TransformParent: {fileID: 2248434285133749092}
    m_Modifications:
    - target: {fileID: 8125178464805537549, guid: 1db712da2d15343ef974ff61beeba2c9, type: 3}
      propertyPath: m_RootOrder
      value: 3
      objectReference: {fileID: 0}
    - target: {fileID: 8125178464805537549, guid: 1db712da2d15343ef974ff61beeba2c9, type: 3}
      propertyPath: m_LocalScale.x
      value: 0.72599936
      objectReference: {fileID: 0}
    - target: {fileID: 8125178464805537549, guid: 1db712da2d15343ef974ff61beeba2c9, type: 3}
      propertyPath: m_LocalScale.y
      value: 0.7259991
      objectReference: {fileID: 0}
    - target: {fileID: 8125178464805537549, guid: 1db712da2d15343ef974ff61beeba2c9, type: 3}
      propertyPath: m_LocalScale.z
      value: 0.7259995
      objectReference: {fileID: 0}
    - target: {fileID: 8125178464805537549, guid: 1db712da2d15343ef974ff61beeba2c9, type: 3}
      propertyPath: m_LocalPosition.x
      value: 0.5502517
      objectReference: {fileID: 0}
    - target: {fileID: 8125178464805537549, guid: 1db712da2d15343ef974ff61beeba2c9, type: 3}
      propertyPath: m_LocalPosition.y
      value: 0.8595002
      objectReference: {fileID: 0}
    - target: {fileID: 8125178464805537549, guid: 1db712da2d15343ef974ff61beeba2c9, type: 3}
      propertyPath: m_LocalPosition.z
      value: -0.019052982
      objectReference: {fileID: 0}
    - target: {fileID: 8125178464805537549, guid: 1db712da2d15343ef974ff61beeba2c9, type: 3}
      propertyPath: m_LocalRotation.w
      value: 0.11130564
      objectReference: {fileID: 0}
    - target: {fileID: 8125178464805537549, guid: 1db712da2d15343ef974ff61beeba2c9, type: 3}
      propertyPath: m_LocalRotation.x
      value: 0.08281445
      objectReference: {fileID: 0}
    - target: {fileID: 8125178464805537549, guid: 1db712da2d15343ef974ff61beeba2c9, type: 3}
      propertyPath: m_LocalRotation.y
      value: 0.08494388
      objectReference: {fileID: 0}
    - target: {fileID: 8125178464805537549, guid: 1db712da2d15343ef974ff61beeba2c9, type: 3}
      propertyPath: m_LocalRotation.z
      value: -0.98668003
      objectReference: {fileID: 0}
    - target: {fileID: 8125178464805537549, guid: 1db712da2d15343ef974ff61beeba2c9, type: 3}
      propertyPath: m_LocalEulerAnglesHint.x
      value: -17.731
      objectReference: {fileID: 0}
    - target: {fileID: 8125178464805537549, guid: 1db712da2d15343ef974ff61beeba2c9, type: 3}
      propertyPath: m_LocalEulerAnglesHint.y
      value: -22.281
      objectReference: {fileID: 0}
    - target: {fileID: 8125178464805537549, guid: 1db712da2d15343ef974ff61beeba2c9, type: 3}
      propertyPath: m_LocalEulerAnglesHint.z
      value: 351.701
      objectReference: {fileID: 0}
    - target: {fileID: 8901855523932151223, guid: 1db712da2d15343ef974ff61beeba2c9, type: 3}
      propertyPath: m_Name
      value: <Axe>
      objectReference: {fileID: 0}
    - target: {fileID: 8901855523932151223, guid: 1db712da2d15343ef974ff61beeba2c9, type: 3}
      propertyPath: m_IsActive
      value: 1
      objectReference: {fileID: 0}
    m_RemovedComponents: []
  m_SourcePrefab: {fileID: 100100000, guid: 1db712da2d15343ef974ff61beeba2c9, type: 3}
--- !u!114 &4861496292065626305 stripped
MonoBehaviour:
  m_CorrespondingSourceObject: {fileID: 6532725957172486627, guid: 1db712da2d15343ef974ff61beeba2c9, type: 3}
  m_PrefabInstance: {fileID: 1864321726805846306}
  m_PrefabAsset: {fileID: 0}
  m_GameObject: {fileID: 7086089472929772693}
  m_Enabled: 1
  m_EditorHideFlags: 0
  m_Script: {fileID: 11500000, guid: 1548198ff7e0d4e129941fba96b42add, type: 3}
  m_Name: 
  m_EditorClassIdentifier: 
--- !u!1 &7086089472929772693 stripped
GameObject:
  m_CorrespondingSourceObject: {fileID: 8901855523932151223, guid: 1db712da2d15343ef974ff61beeba2c9, type: 3}
  m_PrefabInstance: {fileID: 1864321726805846306}
  m_PrefabAsset: {fileID: 0}
--- !u!1773428102 &646210800195924062
ParentConstraint:
  m_ObjectHideFlags: 0
  m_CorrespondingSourceObject: {fileID: 0}
  m_PrefabInstance: {fileID: 0}
  m_PrefabAsset: {fileID: 0}
  m_GameObject: {fileID: 7086089472929772693}
  m_Enabled: 1
  m_Weight: 1
  m_TranslationAtRest: {x: 0.5502517, y: 0.8595002, z: -0.019052982}
  m_RotationAtRest: {x: 10.722965, y: -8.457838, z: -167.92274}
  m_TranslationOffsets:
  - {x: 0.03499937, y: -0.07799959, z: -0.037000418}
  m_RotationOffsets:
  - {x: -17.730942, y: -22.281292, z: -8.299212}
  m_AffectTranslationX: 1
  m_AffectTranslationY: 1
  m_AffectTranslationZ: 1
  m_AffectRotationX: 1
  m_AffectRotationY: 1
  m_AffectRotationZ: 1
  m_IsContraintActive: 1
  m_IsLocked: 0
  m_Sources:
  - sourceTransform: {fileID: 5694267148968943437}
    weight: 1
--- !u!4 &7574219461443284527 stripped
Transform:
  m_CorrespondingSourceObject: {fileID: 8125178464805537549, guid: 1db712da2d15343ef974ff61beeba2c9, type: 3}
  m_PrefabInstance: {fileID: 1864321726805846306}
  m_PrefabAsset: {fileID: 0}
--- !u!1001 &2746085008744678094
PrefabInstance:
  m_ObjectHideFlags: 0
  serializedVersion: 2
  m_Modification:
    m_TransformParent: {fileID: 4783631709067173296}
    m_Modifications:
    - target: {fileID: 7946380673508146245, guid: f2a4b0a481f1445659acaeb51310e2b4, type: 3}
      propertyPath: m_Pivot.x
      value: 0.5
      objectReference: {fileID: 0}
    - target: {fileID: 7946380673508146245, guid: f2a4b0a481f1445659acaeb51310e2b4, type: 3}
      propertyPath: m_Pivot.y
      value: 0.5
      objectReference: {fileID: 0}
    - target: {fileID: 7946380673508146245, guid: f2a4b0a481f1445659acaeb51310e2b4, type: 3}
      propertyPath: m_RootOrder
      value: 0
      objectReference: {fileID: 0}
    - target: {fileID: 7946380673508146245, guid: f2a4b0a481f1445659acaeb51310e2b4, type: 3}
      propertyPath: m_AnchorMax.x
      value: 0.5
      objectReference: {fileID: 0}
    - target: {fileID: 7946380673508146245, guid: f2a4b0a481f1445659acaeb51310e2b4, type: 3}
      propertyPath: m_AnchorMax.y
      value: 0.5
      objectReference: {fileID: 0}
    - target: {fileID: 7946380673508146245, guid: f2a4b0a481f1445659acaeb51310e2b4, type: 3}
      propertyPath: m_AnchorMin.x
      value: 0.5
      objectReference: {fileID: 0}
    - target: {fileID: 7946380673508146245, guid: f2a4b0a481f1445659acaeb51310e2b4, type: 3}
      propertyPath: m_AnchorMin.y
      value: 0.5
      objectReference: {fileID: 0}
    - target: {fileID: 7946380673508146245, guid: f2a4b0a481f1445659acaeb51310e2b4, type: 3}
      propertyPath: m_SizeDelta.x
      value: 150
      objectReference: {fileID: 0}
    - target: {fileID: 7946380673508146245, guid: f2a4b0a481f1445659acaeb51310e2b4, type: 3}
      propertyPath: m_SizeDelta.y
      value: 60
      objectReference: {fileID: 0}
    - target: {fileID: 7946380673508146245, guid: f2a4b0a481f1445659acaeb51310e2b4, type: 3}
      propertyPath: m_LocalPosition.x
      value: 0
      objectReference: {fileID: 0}
    - target: {fileID: 7946380673508146245, guid: f2a4b0a481f1445659acaeb51310e2b4, type: 3}
      propertyPath: m_LocalPosition.y
      value: 0
      objectReference: {fileID: 0}
    - target: {fileID: 7946380673508146245, guid: f2a4b0a481f1445659acaeb51310e2b4, type: 3}
      propertyPath: m_LocalPosition.z
      value: 0
      objectReference: {fileID: 0}
    - target: {fileID: 7946380673508146245, guid: f2a4b0a481f1445659acaeb51310e2b4, type: 3}
      propertyPath: m_LocalRotation.w
      value: 1
      objectReference: {fileID: 0}
    - target: {fileID: 7946380673508146245, guid: f2a4b0a481f1445659acaeb51310e2b4, type: 3}
      propertyPath: m_LocalRotation.x
      value: 0
      objectReference: {fileID: 0}
    - target: {fileID: 7946380673508146245, guid: f2a4b0a481f1445659acaeb51310e2b4, type: 3}
      propertyPath: m_LocalRotation.y
      value: 0
      objectReference: {fileID: 0}
    - target: {fileID: 7946380673508146245, guid: f2a4b0a481f1445659acaeb51310e2b4, type: 3}
      propertyPath: m_LocalRotation.z
      value: 0
      objectReference: {fileID: 0}
    - target: {fileID: 7946380673508146245, guid: f2a4b0a481f1445659acaeb51310e2b4, type: 3}
      propertyPath: m_AnchoredPosition.x
      value: 0
      objectReference: {fileID: 0}
    - target: {fileID: 7946380673508146245, guid: f2a4b0a481f1445659acaeb51310e2b4, type: 3}
      propertyPath: m_AnchoredPosition.y
      value: 35
      objectReference: {fileID: 0}
    - target: {fileID: 7946380673508146245, guid: f2a4b0a481f1445659acaeb51310e2b4, type: 3}
      propertyPath: m_LocalEulerAnglesHint.x
      value: 0
      objectReference: {fileID: 0}
    - target: {fileID: 7946380673508146245, guid: f2a4b0a481f1445659acaeb51310e2b4, type: 3}
      propertyPath: m_LocalEulerAnglesHint.y
      value: 0
      objectReference: {fileID: 0}
    - target: {fileID: 7946380673508146245, guid: f2a4b0a481f1445659acaeb51310e2b4, type: 3}
      propertyPath: m_LocalEulerAnglesHint.z
      value: 0
      objectReference: {fileID: 0}
    - target: {fileID: 8045708095036744834, guid: f2a4b0a481f1445659acaeb51310e2b4, type: 3}
      propertyPath: m_Name
      value: DialogBarnFull
      objectReference: {fileID: 0}
    - target: {fileID: 8045708095036744834, guid: f2a4b0a481f1445659acaeb51310e2b4, type: 3}
      propertyPath: m_IsActive
      value: 0
      objectReference: {fileID: 0}
    m_RemovedComponents: []
  m_SourcePrefab: {fileID: 100100000, guid: f2a4b0a481f1445659acaeb51310e2b4, type: 3}
--- !u!224 &5213825705669557899 stripped
RectTransform:
  m_CorrespondingSourceObject: {fileID: 7946380673508146245, guid: f2a4b0a481f1445659acaeb51310e2b4, type: 3}
  m_PrefabInstance: {fileID: 2746085008744678094}
  m_PrefabAsset: {fileID: 0}
--- !u!1 &5310893115516053068 stripped
GameObject:
  m_CorrespondingSourceObject: {fileID: 8045708095036744834, guid: f2a4b0a481f1445659acaeb51310e2b4, type: 3}
  m_PrefabInstance: {fileID: 2746085008744678094}
  m_PrefabAsset: {fileID: 0}
